{
	"label": "Programs",
	"entries": {
		"Armor": {
			"name": "盔甲",
			"description": "<p>只要此程式保持存活狀態，你能將受到的所有大腦傷害降低 4 點。同時間只能運行一個副本。每個副本只能在單次竄網中使用一次。</p>"
		},
		"Banhammer": {
			"name": "巨錘",
			"description": "<p>對非 Black ICE 程式造成 3d6 傷害，或對 Black ICE 程式造成 2d6 傷害。</p>"
		},
		"DeckKRASH": {
			"name": "腦機過載",
			"description": "<p>敵方竄網使被強行且不安全地從網路架構中彈出，在離開時受到他們在架構中遭遇的所有存活敵方 Black ICE 影響。</p>"
		},
		"Eraser": {
			"name": "抹消",
			"description": "<p>只要此程式保持存活狀態，你所做的所有隱秘檢定都會 +2。</p>"
		},
		"Flak": {
			"name": "炫彩",
			"description": "<p>只要此程式保持存活狀態，就會將所有針對你運行的非 Black ICE 攻擊程式的攻擊降低至 0。 同時間只能運行一個副本。每個副本只能在單次竄網中使用一次。</p>"
		},
		"Hellbolt": {
			"name": "地獄火",
			"description": "<p>對敵方竄網使的大腦造成 2d6 傷害。 除非隔熱，否則他們的腦機面板會連同衣服一起著火。在對方花費一次肉界行動滅火之前，每次結束回合，他們的 HP 都會受到 2 點傷害。 此效果的著火傷害不會堆疊。</p>"
		},
		"Nervescrub": {
			"name": "神經磨損",
			"description": "<p>敵方竄網使的智力、反射和靈巧在接下來的一小時內各降低 1d6（最少 1）。這些影響主要是精神影響，不會有永久後遺症。</p>"
		},
		"Poison Flatline": {
			"name": "毀滅毒線",
			"description": "<p>隨機摧毀安裝在目標竄網使的腦機面板上的單個非Black ICE程式。</p>"
		},
		"See Ya": {
			"name": "看清楚點",
			"description": "<p>只要此程式保持存活狀態，你所做的所有探路檢定都會 +2。</p>"
		},
		"Shield": {
			"name": "屏障",
			"description": "<p>阻止第一個成功的非Black ICE程式效果造成的大腦傷害。阻止此傷害後，屏障會自動失效。 同時間只能運行一個副本。每個副本只能在單次竄網中使用一次。</p>"
		},
		"Speedy Gonzalvez": {
			"name": "飛毛腿岡薩雷斯",
			"description": "<p>只要此程式保持存活狀態，你Black ICE的速度 +2。</p>"
		},
		"Superglue": {
			"name": "強力膠",
			"description": "<p>敵方竄網使無法在 1d6 輪內更深入地進入網路架構或安全彈出（不過，仍然可以執行不安全的彈出）。 每個副本只能在單次竄網中使用一次。</p>"
		},
		"Sword": {
			"name": "武士刀",
			"description": "<p>對 Black ICE 程式造成 3d6 傷害，或對非 Black ICE 程式造成 2d6 傷害。</p>"
		},
		"Vrizzbolt": {
			"name": "干擾螺旋",
			"description": "<p>對竄網使的大腦造成 1d6 傷害，並使竄網使下一回合中能進行的竄網行動總數減少 1 個（至少 2）。</p>"
		},
		"Worm": {
			"name": "蠕蟲",
			"description": "<p>只要此程式保持存活狀態，你所做的所有開後門檢定都會 +2。</p>"
		}
	}
}