{
	"label": "Critical Injuries (Head)",
	"entries": {
		"Brain Injury": {
			"name": "Brain Injury",
			"description": "<p>腦損傷：所有動作 -2。 基礎死亡豁免懲罰增加 1。</p>"
		},
		"Broken Jaw": {
			"name": "Broken Jaw",
			"description": "<p>下顎骨折：所有涉及言語的動作 -4</p>"
		},
		"Concussion": {
			"name": "Concussion",
			"description": "<p>腦震盪：所有動作-2</p>"
		},
		"Cracked Skull": {
			"name": "Cracked Skull",
			"description": "<p>頭骨破裂：瞄準頭部射擊會將通過 SP 造成的傷害乘以 3，而不是 2。基礎死亡豁免罰值增加 1。</p>"
		},
		"Crushed Windpipe": {
			"name": "Crushed Windpipe",
			"description": "<p>氣管破裂：你不能說話。 基礎死亡豁免懲罰增加 1。</p>"
		},
		"Damaged Ear": {
			"name": "Damaged Ear",
			"description": "<p>耳朵受損：每當你回合內步行移動超過 4m/碼時，你就無法在下一個回合中進行移動。 此外，你在涉及聽力的察覺檢定-2。</p>"
		},
		"Damaged Eye": {
			"name": "Damaged Eye",
			"description": "<p>眼睛受損：涉及視力的遠程攻擊和察覺檢定 -2。</p>"
		},
		"Foreign Object (H)": {
			"name": "Foreign Object (H)",
			"description": "<p>異物侵入 (H)：在每個回合結束時，如果你步行超過 4m/碼，生命值將直接重新受到此重傷加值的額外傷害。</p>"
		},
		"Lost Ear": {
			"name": "Lost Ear",
			"description": "<p>失去耳朵：耳朵沒了。每當你回合內步行移動超過 4m/碼時，你就無法在下一個回合中進行移動。 此外，你在涉及聽力的察覺檢定-4。</p>"
		},
		"Lost Eye": {
			"name": "Lost Eye",
			"description": "<p>失去眼睛：眼睛沒了。涉及視力的遠程攻擊和察覺檢定 -4。 基礎死亡豁免懲罰增加 1。</p>"
		},
		"Whiplash": {
			"name": "Whiplash",
			"description": "<p>頸部挫傷：基礎死亡豁免懲罰增加 1。</p>"
		}
	}
}